{
  "rulesDirectory": [
    "node_modules/@nrwl/workspace/src/tslint",
    "node_modules/codelyzer"
  ],
  "rules": {
    "arrow-return-shorthand": true,
    "callable-types": true,
    "class-name": true,
    "deprecation": {
      "severity": "warn"
    },
    "import-blacklist": [true, "rxjs/Rx"],
    "interface-over-type-literal": true,
    "member-access": false,
    "member-ordering": [
      true,
      {
        "order": [
          "static-field",
          "instance-field",
          "static-method",
          "instance-method"
        ]
      }
    ],
    "no-arg": true,
    "no-bitwise": true,
    "no-console": [true, "debug", "time", "timeEnd", "trace"],
    "no-construct": true,
    "no-debugger": true,
    "no-duplicate-super": true,
    "no-empty": false,
    "no-empty-interface": true,
    "no-eval": true,
    "no-inferrable-types": [true, "ignore-params"],
    "no-misused-new": true,
    "no-non-null-assertion": true,
    "no-shadowed-variable": true,
    "no-string-literal": false,
    "no-string-throw": true,
    "no-switch-case-fall-through": true,
    "no-unnecessary-initializer": true,
    "no-unused-expression": true,
    "no-var-keyword": true,
    "object-literal-sort-keys": false,
    "prefer-const": true,
    "radix": true,
    "triple-equals": [true, "allow-null-check"],
    "unified-signatures": true,
    "variable-name": false,
    "nx-enforce-module-boundaries": [
      true,
      {
        "enforceBuildableLibDependency": true,
        "allow": [],
        "depConstraints": [
          {
            "sourceTag": "*",
            "onlyDependOnLibsWithTags": ["*"]
          }
        ]
      }
    ],
    "directive-selector": [true, "attribute", "tdfse", "camelCase"],
    "component-selector": [true, "element", "tdfse", "kebab-case"],
    "no-conflicting-lifecycle": true,
    "no-host-metadata-property": true,
    "no-input-rename": true,
    "no-inputs-metadata-property": true,
    "no-output-native": true,
    "no-output-on-prefix": true,
    "no-output-rename": true,
    "no-outputs-metadata-property": true,
    "template-banana-in-box": true,
    "template-no-negated-async": true,
    "use-lifecycle-interface": true,
    "use-pipe-transform-interface": true
  }
}
